%YAML 1.1
%TAG !u! tag:unity3d.com,2011:
--- !u!114 &11400000
MonoBehaviour:
  m_ObjectHideFlags: 0
  m_CorrespondingSourceObject: {fileID: 0}
  m_PrefabInstance: {fileID: 0}
  m_PrefabAsset: {fileID: 0}
  m_GameObject: {fileID: 0}
  m_Enabled: 1
  m_EditorHideFlags: 0
  m_Script: {fileID: 11500000, guid: 2884c7522f93b8d4f9a40eda6a98cb96, type: 3}
  m_Name: 0006
  m_EditorClassIdentifier: 
  icon: {fileID: 21300000, guid: c3968a526895b6241a9a5729c254f7ca, type: 3}
  prefab: {fileID: 7583176419945962863, guid: fb03c6fb6222a894c940d0f460cebb8c, type: 3}
