%YAML 1.1
%TAG !u! tag:unity3d.com,2011:
--- !u!114 &11400000
MonoBehaviour:
  m_ObjectHideFlags: 0
  m_CorrespondingSourceObject: {fileID: 0}
  m_PrefabInstance: {fileID: 0}
  m_PrefabAsset: {fileID: 0}
  m_GameObject: {fileID: 0}
  m_Enabled: 1
  m_EditorHideFlags: 0
  m_Script: {fileID: 11500000, guid: 49864aedcf632914a93c687f4423eb27, type: 3}
  m_Name: Thunder Wave
  m_EditorClassIdentifier: 
  unlocalizedName: ThunderWave
  type: {fileID: 11400000, guid: 4d4f15e5e3f529f4c88b07f38c267531, type: 2}
  category: {fileID: 11400000, guid: 152ac1e2da8d67248b350be9bd5351eb, type: 2}
  powerPoints: 20
  power: 0
  accuracy: 0.9
  priority: 0
  flags: 0
  animationTimeline: {fileID: 11400000, guid: aba525f0d590afa43a8c0ca1f0bd81ff, type: 2}
  behaviourClass: StatusMove
  moveProperties:
    keys:
    - status
    - rate
    values:
    - value: 3
    - value: 1
