%YAML 1.1
%TAG !u! tag:unity3d.com,2011:
--- !u!114 &11400000
MonoBehaviour:
  m_ObjectHideFlags: 0
  m_CorrespondingSourceObject: {fileID: 0}
  m_PrefabInstance: {fileID: 0}
  m_PrefabAsset: {fileID: 0}
  m_GameObject: {fileID: 0}
  m_Enabled: 1
  m_EditorHideFlags: 0
  m_Script: {fileID: 11500000, guid: 49864aedcf632914a93c687f4423eb27, type: 3}
  m_Name: Thunder Shock
  m_EditorClassIdentifier: 
  unlocalizedName: ThunderShock
  type: {fileID: 11400000, guid: 4d4f15e5e3f529f4c88b07f38c267531, type: 2}
  category: {fileID: 11400000, guid: 37809354dc2e7424095975dc068c55b3, type: 2}
  powerPoints: 30
  power: 40
  accuracy: 1
  priority: 0
  flags: 0
  animationTimeline: {fileID: 11400000, guid: aba525f0d590afa43a8c0ca1f0bd81ff, type: 2}
  behaviourClass: BaseMove
  moveProperties:
    keys: []
    values: []
