%YAML 1.1
%TAG !u! tag:unity3d.com,2011:
--- !u!114 &11400000
MonoBehaviour:
  m_ObjectHideFlags: 0
  m_CorrespondingSourceObject: {fileID: 0}
  m_PrefabInstance: {fileID: 0}
  m_PrefabAsset: {fileID: 0}
  m_GameObject: {fileID: 0}
  m_Enabled: 1
  m_EditorHideFlags: 0
  m_Script: {fileID: 11500000, guid: 1fc29d5198d62164583a22d65c7c67d2, type: 3}
  m_Name: Salameche 1
  m_EditorClassIdentifier: 
  pokemonData: {fileID: 11400000, guid: b513b0e49b18f66449e31dc8c3323de5, type: 2}
  hasNickname: 0
  nickname: "Pikarat\xE9ka"
  level: 14
  totalExp: 2744
  currentExp: 0
  friendship: 0
  female: 0
  isShiny: 0
  currentHealth: 45
  status: 0
  statusState: 2
  evs:
    hp: 0
    attack: 0
    defense: 0
    spAtk: 0
    spDef: 0
    speed: 0
  ivs:
    hp: 0
    attack: 0
    defense: 0
    spAtk: 0
    spDef: 0
    speed: 0
  stats:
    hp: 45
    attack: 28
    defense: 26
    spAtk: 35
    spDef: 28
    speed: 33
  ability: {fileID: 11400000, guid: 51ed2fa1c82b5de478bd8b01dd5fdcef, type: 2}
  moveset:
  - move: {fileID: 11400000, guid: 630b346e9f05c6b499fafd0404bf6664, type: 2}
    powerPoints: 55
    maxPowerPoints: 56
    powerPointsUpgrades: 3
  - move: {fileID: 11400000, guid: 5ccbbe28f31759e478e107991d6e4fa6, type: 2}
    powerPoints: 30
    maxPowerPoints: 30
    powerPointsUpgrades: 0
  - move: {fileID: 11400000, guid: abfa650724f32634f9abeb06a82ea1bb, type: 2}
    powerPoints: 14
    maxPowerPoints: 15
    powerPointsUpgrades: 0
  - move: {fileID: 11400000, guid: 8d763f04b64875042ab396e6ef98f57d, type: 2}
    powerPoints: 19
    maxPowerPoints: 20
    powerPointsUpgrades: 0
