{
    "name": "PlayerControls",
    "maps": [
        {
            "name": "Overworld",
            "id": "dbba999d-643a-47c3-90ae-ae3e0d1ede88",
            "actions": [
                {
                    "name": "Interact",
                    "type": "Button",
                    "id": "42bb9efe-3158-4905-ab63-9bb94cbdfb82",
                    "expectedControlType": "Button",
                    "processors": "",
                    "interactions": ""
                },
                {
                    "name": "Move",
                    "type": "Value",
                    "id": "fe482a06-0f3c-4813-8922-028fbebc97eb",
                    "expectedControlType": "Vector2",
                    "processors": "",
                    "interactions": ""
                },
                {
                    "name": "Sprint",
                    "type": "Button",
                    "id": "186319ec-6c14-4583-8935-106b0b6d0d01",
                    "expectedControlType": "",
                    "processors": "",
                    "interactions": ""
                },
                {
                    "name": "Camera",
                    "type": "Value",
                    "id": "17378788-cf90-4688-b0e9-9c656151da30",
                    "expectedControlType": "Vector2",
                    "processors": "",
                    "interactions": ""
                }
            ],
            "bindings": [
                {
                    "name": "",
                    "id": "eab42f11-1241-4cca-a2fc-c2c1f1cb67f4",
                    "path": "<Keyboard>/space",
                    "interactions": "Tap",
                    "processors": "",
                    "groups": "",
                    "action": "Interact",
                    "isComposite": false,
                    "isPartOfComposite": false
                },
                {
                    "name": "",
                    "id": "da3e0017-24cf-4c84-a2da-8cb7999baf99",
                    "path": "<Gamepad>/buttonEast",
                    "interactions": "Tap",
                    "processors": "",
                    "groups": "",
                    "action": "Interact",
                    "isComposite": false,
                    "isPartOfComposite": false
                },
                {
                    "name": "",
                    "id": "0c73175d-923b-4c0b-bbdf-52164eddd75d",
                    "path": "<HID::Saitek PLC Saitek P2600 Rumble Force Pad Joystick>/button3",
                    "interactions": "Tap",
                    "processors": "",
                    "groups": "",
                    "action": "Interact",
                    "isComposite": false,
                    "isPartOfComposite": false
                },
                {
                    "name": "WASD",
                    "id": "da8ef64c-fd3f-4484-920b-ba3697b820de",
                    "path": "2DVector",
                    "interactions": "",
                    "processors": "",
                    "groups": "",
                    "action": "Move",
                    "isComposite": true,
                    "isPartOfComposite": false
                },
                {
                    "name": "up",
                    "id": "8403391d-6063-4b22-b399-d57c678adf9a",
                    "path": "<Keyboard>/w",
                    "interactions": "",
                    "processors": "",
                    "groups": "",
                    "action": "Move",
                    "isComposite": false,
                    "isPartOfComposite": true
                },
                {
                    "name": "down",
                    "id": "af9aaa0d-50f1-4356-95a8-62c9d36bedb8",
                    "path": "<Keyboard>/s",
                    "interactions": "",
                    "processors": "",
                    "groups": "",
                    "action": "Move",
                    "isComposite": false,
                    "isPartOfComposite": true
                },
                {
                    "name": "left",
                    "id": "852bc5a0-b053-4dcd-9d60-4fe3c6229553",
                    "path": "<Keyboard>/a",
                    "interactions": "",
                    "processors": "",
                    "groups": "",
                    "action": "Move",
                    "isComposite": false,
                    "isPartOfComposite": true
                },
                {
                    "name": "right",
                    "id": "5e141430-d671-4564-b818-d1be09d7f5eb",
                    "path": "<Keyboard>/d",
                    "interactions": "",
                    "processors": "",
                    "groups": "",
                    "action": "Move",
                    "isComposite": false,
                    "isPartOfComposite": true
                },
                {
                    "name": "",
                    "id": "5ba4a923-0ba8-4e47-a6cf-a02aebbe52bd",
                    "path": "<Gamepad>/leftStick",
                    "interactions": "",
                    "processors": "NormalizeVector2",
                    "groups": "",
                    "action": "Move",
                    "isComposite": false,
                    "isPartOfComposite": false
                },
                {
                    "name": "",
                    "id": "b2c6a8ea-a7b4-470e-b39b-d7d0c3ec539c",
                    "path": "<HID::Saitek PLC Saitek P2600 Rumble Force Pad Joystick>/Stick",
                    "interactions": "",
                    "processors": "InvertVector2(invertX=false)",
                    "groups": "",
                    "action": "Move",
                    "isComposite": false,
                    "isPartOfComposite": false
                },
                {
                    "name": "",
                    "id": "22078382-7d14-4700-940f-9ae5d4e100ce",
                    "path": "<Keyboard>/leftShift",
                    "interactions": "",
                    "processors": "",
                    "groups": "",
                    "action": "Sprint",
                    "isComposite": false,
                    "isPartOfComposite": false
                },
                {
                    "name": "",
                    "id": "b6e5c954-dd16-42eb-9fb8-a42ae50d3293",
                    "path": "<Gamepad>/buttonSouth",
                    "interactions": "",
                    "processors": "",
                    "groups": "",
                    "action": "Sprint",
                    "isComposite": false,
                    "isPartOfComposite": false
                },
                {
                    "name": "",
                    "id": "dd7663cb-7155-4af4-9fe1-11fcdc7468f7",
                    "path": "<HID::Saitek PLC Saitek P2600 Rumble Force Pad Joystick>/button2",
                    "interactions": "",
                    "processors": "",
                    "groups": "",
                    "action": "Sprint",
                    "isComposite": false,
                    "isPartOfComposite": false
                },
                {
                    "name": "",
                    "id": "fe8af140-4132-4af2-abea-f443b6b520d5",
                    "path": "<Gamepad>/rightStick",
                    "interactions": "",
                    "processors": "NormalizeVector2",
                    "groups": "",
                    "action": "Camera",
                    "isComposite": false,
                    "isPartOfComposite": false
                },
                {
                    "name": "arrows",
                    "id": "ca9d99ea-88e2-4072-944e-41e51c1f999a",
                    "path": "2DVector",
                    "interactions": "",
                    "processors": "",
                    "groups": "",
                    "action": "Camera",
                    "isComposite": true,
                    "isPartOfComposite": false
                },
                {
                    "name": "up",
                    "id": "082b707c-1909-450a-948e-3a7aaa56b468",
                    "path": "<Keyboard>/upArrow",
                    "interactions": "",
                    "processors": "",
                    "groups": "",
                    "action": "Camera",
                    "isComposite": false,
                    "isPartOfComposite": true
                },
                {
                    "name": "down",
                    "id": "64a2a313-5ce4-4f45-a885-06ca56140f6b",
                    "path": "<Keyboard>/downArrow",
                    "interactions": "",
                    "processors": "",
                    "groups": "",
                    "action": "Camera",
                    "isComposite": false,
                    "isPartOfComposite": true
                },
                {
                    "name": "left",
                    "id": "a842608b-03c4-4537-a1b0-78e1a3835f1f",
                    "path": "<Keyboard>/leftArrow",
                    "interactions": "",
                    "processors": "",
                    "groups": "",
                    "action": "Camera",
                    "isComposite": false,
                    "isPartOfComposite": true
                },
                {
                    "name": "right",
                    "id": "cc84eca5-c21d-4bc5-a5de-449a22d56464",
                    "path": "<Keyboard>/rightArrow",
                    "interactions": "",
                    "processors": "",
                    "groups": "",
                    "action": "Camera",
                    "isComposite": false,
                    "isPartOfComposite": true
                },
                {
                    "name": "",
                    "id": "74cc93d5-6b2d-4a65-b7f8-d3b72a661498",
                    "path": "<HID::Saitek PLC Saitek P2600 Rumble Force Pad Joystick>/dpad",
                    "interactions": "",
                    "processors": "",
                    "groups": "",
                    "action": "Camera",
                    "isComposite": false,
                    "isPartOfComposite": false
                }
            ]
        },
        {
            "name": "Battle",
            "id": "e8459a23-5fdc-449b-ab70-46dd6688250e",
            "actions": [
                {
                    "name": "Continue",
                    "type": "Button",
                    "id": "2f0d5c63-edac-4a4f-a6d1-5006352ab83e",
                    "expectedControlType": "",
                    "processors": "",
                    "interactions": ""
                },
                {
                    "name": "Back",
                    "type": "Button",
                    "id": "a19e5329-df35-468f-a6df-95c0d3fea6dd",
                    "expectedControlType": "",
                    "processors": "",
                    "interactions": ""
                },
                {
                    "name": "Down",
                    "type": "Button",
                    "id": "d8214acf-f5f7-4d99-9acb-f58812e39759",
                    "expectedControlType": "",
                    "processors": "",
                    "interactions": ""
                },
                {
                    "name": "Up",
                    "type": "Button",
                    "id": "0af4ae0c-5629-4318-b6a6-9373c8c3680b",
                    "expectedControlType": "",
                    "processors": "",
                    "interactions": ""
                }
            ],
            "bindings": [
                {
                    "name": "",
                    "id": "fdede75f-22e5-4ca4-9a14-04d7db9af115",
                    "path": "<Keyboard>/space",
                    "interactions": "Tap",
                    "processors": "",
                    "groups": "",
                    "action": "Continue",
                    "isComposite": false,
                    "isPartOfComposite": false
                },
                {
                    "name": "",
                    "id": "6be37658-a753-4661-be3e-54a7593b2682",
                    "path": "<Keyboard>/enter",
                    "interactions": "Tap",
                    "processors": "",
                    "groups": "",
                    "action": "Continue",
                    "isComposite": false,
                    "isPartOfComposite": false
                },
                {
                    "name": "",
                    "id": "47db3931-721e-4317-a4d0-db831959a98e",
                    "path": "<Keyboard>/downArrow",
                    "interactions": "Tap",
                    "processors": "",
                    "groups": "",
                    "action": "Down",
                    "isComposite": false,
                    "isPartOfComposite": false
                },
                {
                    "name": "",
                    "id": "ac47a2bc-f151-4c37-8a5c-c6c842bcc947",
                    "path": "<Gamepad>/leftStick/down",
                    "interactions": "Tap",
                    "processors": "",
                    "groups": "",
                    "action": "Down",
                    "isComposite": false,
                    "isPartOfComposite": false
                },
                {
                    "name": "",
                    "id": "d66bcc69-ee3f-4cc9-846b-0e57f8fa7e06",
                    "path": "<Keyboard>/upArrow",
                    "interactions": "Tap",
                    "processors": "",
                    "groups": "",
                    "action": "Up",
                    "isComposite": false,
                    "isPartOfComposite": false
                },
                {
                    "name": "",
                    "id": "a83503ae-cd04-41e4-aba6-8ce4b6821e34",
                    "path": "<Gamepad>/leftStick/up",
                    "interactions": "Tap",
                    "processors": "",
                    "groups": "",
                    "action": "Up",
                    "isComposite": false,
                    "isPartOfComposite": false
                },
                {
                    "name": "",
                    "id": "089b54a1-6bcd-49ec-b232-35818827924b",
                    "path": "<Keyboard>/escape",
                    "interactions": "Tap",
                    "processors": "",
                    "groups": "",
                    "action": "Back",
                    "isComposite": false,
                    "isPartOfComposite": false
                },
                {
                    "name": "",
                    "id": "c027878f-f8a3-45f6-8dd9-502b9099a0c4",
                    "path": "<Gamepad>/buttonSouth",
                    "interactions": "Tap",
                    "processors": "",
                    "groups": "",
                    "action": "Back",
                    "isComposite": false,
                    "isPartOfComposite": false
                }
            ]
        }
    ],
    "controlSchemes": []
}