%YAML 1.1
%TAG !u! tag:unity3d.com,2011:
--- !u!114 &11400000
MonoBehaviour:
  m_ObjectHideFlags: 0
  m_CorrespondingSourceObject: {fileID: 0}
  m_PrefabInstance: {fileID: 0}
  m_PrefabAsset: {fileID: 0}
  m_GameObject: {fileID: 0}
  m_Enabled: 1
  m_EditorHideFlags: 0
  m_Script: {fileID: 11500000, guid: 0c4df013c22a4eb49a487a208ae594b6, type: 3}
  m_Name: Bug
  m_EditorClassIdentifier: 
  unlocalizedName: Bug
  color: {r: 0.49803925, g: 0.75294125, b: 0, a: 1}
  icon: {fileID: 21300000, guid: 33a7e5675858a6c43af2d61772b11c3c, type: 3}
  alternativeIcon: {fileID: 21300000, guid: ba024ce0d4a0d064e9cccc6d2748c8a9, type: 3}
