%YAML 1.1
%TAG !u! tag:unity3d.com,2011:
--- !u!114 &11400000
MonoBehaviour:
  m_ObjectHideFlags: 0
  m_CorrespondingSourceObject: {fileID: 0}
  m_PrefabInstance: {fileID: 0}
  m_PrefabAsset: {fileID: 0}
  m_GameObject: {fileID: 0}
  m_Enabled: 1
  m_EditorHideFlags: 0
  m_Script: {fileID: 11500000, guid: 0c4df013c22a4eb49a487a208ae594b6, type: 3}
  m_Name: Poison
  m_EditorClassIdentifier: 
  unlocalizedName: Poison
  color: {r: 0.78958577, g: 0.497152, b: 0.7924528, a: 1}
  icon: {fileID: 21300000, guid: 774c766ab8d459248afe240efdc083b4, type: 3}
  alternativeIcon: {fileID: 21300000, guid: f59792dec556bbb489c1f5613a675de4, type: 3}
