%YAML 1.1
%TAG !u! tag:unity3d.com,2011:
--- !u!21 &2100000
Material:
  serializedVersion: 6
  m_ObjectHideFlags: 0
  m_CorrespondingSourceObject: {fileID: 0}
  m_PrefabInstance: {fileID: 0}
  m_PrefabAsset: {fileID: 0}
  m_Name: Mouth_mat
  m_Shader: {fileID: -6465566751694194690, guid: dbe326d862ee9b341a380132c2b86376,
    type: 3}
  m_ShaderKeywords: 
  m_LightmapFlags: 4
  m_EnableInstancingVariants: 0
  m_DoubleSidedGI: 0
  m_CustomRenderQueue: -1
  stringTagMap: {}
  disabledShaderPasses: []
  m_SavedProperties:
    serializedVersion: 3
    m_TexEnvs:
    - Texture2D_5DDB0544:
        m_Texture: {fileID: 2800000, guid: 07f06d714bfc76042983b78feab0e3f1, type: 3}
        m_Scale: {x: 1, y: 1}
        m_Offset: {x: 0, y: 0}
    - Texture2D_DFED45EE:
        m_Texture: {fileID: 2800000, guid: a2112adfbc1014d48b0d89be0462e7ea, type: 3}
        m_Scale: {x: 1, y: 1}
        m_Offset: {x: 0, y: 0}
    m_Floats: []
    m_Colors:
    - Color_226F6F6B: {r: 1, g: 1, b: 1, a: 1}
    - Vector2_15061DC3: {r: 0, g: 0, b: 0, a: 0}
    - Vector2_B5E1F62D: {r: 1, g: 1, b: 0, a: 0}
