%YAML 1.1
%TAG !u! tag:unity3d.com,2011:
--- !u!114 &11400000
MonoBehaviour:
  m_ObjectHideFlags: 0
  m_CorrespondingSourceObject: {fileID: 0}
  m_PrefabInstance: {fileID: 0}
  m_PrefabAsset: {fileID: 0}
  m_GameObject: {fileID: 0}
  m_Enabled: 1
  m_EditorHideFlags: 0
  m_Script: {fileID: 11500000, guid: 539aceeb21501a547996732b75e0d6ff, type: 3}
  m_Name: Hardy
  m_EditorClassIdentifier: 
  unlocalizedName: Hardy
  attackMultiplier: 1
  defenseMultiplier: 1
  spAtkMultiplier: 1
  spDefkMultiplier: 1
  speedMultiplier: 1
