%YAML 1.1
%TAG !u! tag:unity3d.com,2011:
--- !u!221 &22100000
AnimatorOverrideController:
  m_ObjectHideFlags: 0
  m_CorrespondingSourceObject: {fileID: 0}
  m_PrefabInstance: {fileID: 0}
  m_PrefabAsset: {fileID: 0}
  m_Name: Charmander_Animator
  m_Controller: {fileID: 9100000, guid: ac3e2c88853abd14d8ad47dcc39ebe80, type: 2}
  m_Clips:
  - m_OriginalClip: {fileID: 7400000, guid: ab9f496c48be7bf4a89a1982be83c1dc, type: 2}
    m_OverrideClip: {fileID: 7400000, guid: 245054ccabcce1241ae25b0f46ce7469, type: 2}
  - m_OriginalClip: {fileID: 7400000, guid: bbb4722caffac9f4e83ebb36b7e548b5, type: 2}
    m_OverrideClip: {fileID: 7400000, guid: 90b51ab7c8987de4486cca07b11f116d, type: 2}
  - m_OriginalClip: {fileID: 7400000, guid: e53505c0d833bb34f8204a97263bb9d5, type: 2}
    m_OverrideClip: {fileID: 7400000, guid: 10726f962d5498c438043b5fdba83870, type: 2}
  - m_OriginalClip: {fileID: 7400000, guid: 6fa19322a833c3848855b992d5da5c81, type: 2}
    m_OverrideClip: {fileID: 7400000, guid: 1ebd4530ef0e25942a936cacb8e101c9, type: 2}
  - m_OriginalClip: {fileID: 7400000, guid: 2b51f0c2b921e524e9e1b8ce87ae6ef9, type: 2}
    m_OverrideClip: {fileID: 7400000, guid: 608f27d2168038d4facde8bad0b4d1d0, type: 2}
  - m_OriginalClip: {fileID: 7400000, guid: 78d759f37f2d2e949af93ee460ac2eb7, type: 2}
    m_OverrideClip: {fileID: 7400000, guid: 608f27d2168038d4facde8bad0b4d1d0, type: 2}
  - m_OriginalClip: {fileID: 7400000, guid: 4791279399bf82343a370fc20c1a5f72, type: 2}
    m_OverrideClip: {fileID: 7400000, guid: 245054ccabcce1241ae25b0f46ce7469, type: 2}
  - m_OriginalClip: {fileID: 7400000, guid: 1c188430e7f3f64448792f8d354c0706, type: 2}
    m_OverrideClip: {fileID: 7400000, guid: c175246adadf6924191badd08a963edd, type: 2}
